<svg width="16" height="16" xmlns="http://www.w3.org/2000/svg">
  <path d="M8.818.188a1.87 1.87 0 00-1.636 0l-4.91 2.386a1.885 1.885 0 00-1.013 1.28L.047 9.214a1.891 1.891 0 00.36 1.59l3.015 3.816a1 1 0 001.57-1.24L2.008 9.606l1.189-5.258L8 2.015l4.802 2.333 1.19 5.258-2.983 3.774a1 1 0 101.569 1.24l3.015-3.815a1.892 1.892 0 00.36-1.59l-1.212-5.361a1.884 1.884 0 00-1.013-1.28L8.818.188z"/>
  <path d="M10.296 7.708A.998.998 0 019 7.807v3.386a.998.998 0 011.296 1.51L8 15l-2.296-2.296A.998.998 0 017 11.194V7.806a.998.998 0 01-1.296-1.51L8 4l2.296 2.296a.998.998 0 010 1.412z"/>
</svg>
